<?xml version="1.0" encoding="UTF-8"?>
<svg width="54px" height="54px" viewBox="0 0 54 54" version="1.1" xmlns="http://www.w3.org/2000/svg" xmlns:xlink="http://www.w3.org/1999/xlink">
    <!-- Generator: Sketch 44.1 (41455) - http://www.bohemiancoding.com/sketch -->
    <title>web</title>
    <desc>Created with Sketch.</desc>
    <defs></defs>
    <g id="Home" stroke="none" stroke-width="1" fill="none" fill-rule="evenodd">
        <path d="M34.9996304,47.8146522 C37.0915435,45.0060652 39.4605,40.9895217 40.8574565,35.9334783 C43.7963478,35.6722826 46.1218696,35.369413 47.7671087,35.1199565 C45.4850217,40.9355217 40.8316304,45.5654348 34.9996304,47.8146522 M6.22702174,35.1058696 C7.88047826,35.3523913 10.2206739,35.654087 13.1372609,35.9164565 C14.5342174,40.9801304 16.9061087,45.0025435 18.9997826,47.8146522 C13.1636739,45.5636739 8.50734783,40.9278913 6.22702174,35.1058696 M19.1353696,6.13134783 C17.037587,8.96634783 14.6240217,13.0245652 13.188913,18.063 C10.2271304,18.3253696 7.88576087,18.630587 6.23230435,18.8806304 C8.53141304,13.0198696 13.2393913,8.36119565 19.1353696,6.13134783 M47.7729783,18.8947174 C46.1107174,18.6470217 43.754087,18.3429783 40.8157826,18.0800217 C39.3812609,13.0339565 36.9641739,8.96986957 34.8646304,6.13134783 C40.7647174,8.36236957 45.4756304,13.026913 47.7729783,18.8947174 M41.6316522,21.7015435 C45.0735652,22.0402174 47.5710652,22.4193913 48.8735217,22.638913 C49.154087,24.0499565 49.3043478,25.5073696 49.3043478,27 C49.3043478,28.4949783 49.154087,29.9553261 48.8717609,31.3693043 C47.5886739,31.5923478 45.1187609,31.9750435 41.646913,32.3148913 C41.916913,30.6338478 42.0736304,28.862413 42.0736304,27 C42.0736304,25.151087 41.9116304,23.3837609 41.6316522,21.7015435 M28.7608696,32.9910652 L28.7608696,21.0101087 C32.1763696,21.0488478 35.2755,21.1961739 37.9843043,21.3916304 C38.339413,23.1577826 38.5518913,25.029587 38.5518913,27 C38.5518913,28.983913 38.3470435,30.8580652 38.0042609,32.6206957 C35.3124783,32.8114565 32.2145217,32.954087 28.7608696,32.9910652 M25.2391304,4.77136957 L25.2391304,17.4877826 C22.2033913,17.5188913 19.4423478,17.6280652 16.982413,17.7795 C19.2281087,11.0729348 23.3098043,6.41308696 24.8740435,4.79895652 C24.9949565,4.78780435 25.1176304,4.78076087 25.2391304,4.77136957 M29.1294783,4.79954348 C30.6972391,6.41015217 34.7865652,11.0629565 37.0287391,17.7912391 C34.5494348,17.6345217 31.7801739,17.5206522 28.7608696,17.4883696 L28.7608696,4.77136957 C28.8835435,4.78134783 29.0073913,4.78780435 29.1294783,4.79954348 M15.4481087,27 C15.4481087,25.0260652 15.6623478,23.1495652 16.0215652,21.3781304 C18.7068913,21.1885435 21.7966304,21.047087 25.2391304,21.0101087 L25.2391304,32.9904783 C21.8142391,32.9517391 18.7074783,32.8038261 15.9933913,32.6077826 C15.6517826,30.8486739 15.4481087,28.9792174 15.4481087,27 M4.69565217,27 C4.69565217,25.5050217 4.84591304,24.0446739 5.12765217,22.6318696 C6.41308696,22.4082391 8.88945652,22.0243696 12.3706957,21.6839348 C12.0889565,23.3714348 11.9263696,25.1446304 11.9263696,27 C11.9263696,28.8559565 12.0825,30.6215217 12.3501522,32.2972826 C8.91704348,31.9591957 6.42658696,31.5811957 5.12647826,31.3616739 C4.84591304,29.9506304 4.69565217,28.4926304 4.69565217,27 M24.8441087,49.1981087 C23.2698913,47.6291739 19.1476957,43.0479783 16.9225435,36.2058261 C19.4141739,36.3648913 22.1992826,36.4799348 25.2391304,36.5128043 L25.2391304,49.2280435 C25.1076522,49.2180652 24.975,49.2104348 24.8441087,49.1981087 M29.1553043,49.1981087 C29.024413,49.2104348 28.8923478,49.2180652 28.7608696,49.2280435 L28.7608696,36.5128043 C31.820087,36.4816957 34.599913,36.3713478 37.0733478,36.2175652 C34.8464348,43.0550217 30.726587,47.6326957 29.1553043,49.1981087 M27,0 C12.1124348,0 0,12.1118478 0,27 C0,41.8875652 12.1124348,54 27,54 C41.8875652,54 54,41.8875652 54,27 C54,12.1118478 41.8875652,0 27,0" id="web" fill="#36D9B6"></path>
    </g>
</svg>