<svg xmlns="http://www.w3.org/2000/svg" width="12" height="9" viewBox="0 0 12 9">
    <path fill="#FFF" fill-rule="nonzero" d="M.138 4.95A.48.48 0 0 1 0 4.635a.48.48 0 0 1 .138-.315l.647-.63a.454.454 0 0 1 .646 0l.046.045L4.015 6.39c.093.09.231.09.323 0L10.523.135h.046a.454.454 0 0 1 .646 0l.647.63c.184.18.184.45 0 .63l-7.385 7.47A.424.424 0 0 1 4.154 9a.424.424 0 0 1-.323-.135l-3.6-3.78-.093-.135z"/>
</svg>
