{
  "/assets/js/mis-inversiones.js": "/assets/js/mis-inversiones.52f8898539a9d988598c.js",
  "/assets/js/mi-inversion.js": "/assets/js/mi-inversion.edbb7367f66dc4ed0d26.js",
  "/js/dashboard-properties.js": "/js/dashboard-properties.465eecebb986adb70bdc.js",
  "/assets/js/main.js": "/assets/js/main.917fe2dc34c13e0791f3.js",
  "/assets/js/property.js": "/assets/js/property.bc4e6ac5238be872004b.js",
  "/js/dashboard-create-property.js": "/js/dashboard-create-property.80f3135181906505b013.js",
  "/assets/js/login-register.js": "/assets/js/login-register.c3b28cbfa19bd9edfbb8.js",
  "/js/dashboard-users.js": "/js/dashboard-users.2d5a2e2dccd6a6069d17.js",
  "/assets/js/cuenta-bancaria.js": "/assets/js/cuenta-bancaria.d98c823d0bd3b71d6f64.js",
  "/js/app.js": "/js/app.f56a70787eb2c3032df5.js",
  "/css/app.css": "/css/app.6ae173d45c23e29cf6c3e5b541e42f2b.css",
  "/assets/css/main.css": "/assets/css/main.f636851af2aec786d2bd9b31c20c46ce.css",
  "/assets/css/excel.css": "/assets/css/excel.93489c29851d5c0bc1ba8389c2a14c8b.css",
  "/mix.js": "/mix.js",
  "/assets/js/mi-mercado.js": "/assets/js/mi-mercado.4425bf07fb25a0d6a089.js",
  "/assets/js/marketplace.js": "/assets/js/marketplace.59490ae91fa4128d277c.js",
  "/assets/js/mis-movimientos.js": "/assets/js/mis-movimientos.1a66243bb28de602346b.js"
}