<svg class="logo__text  |  v-middle  from-l-inline" width="94px" height="26px" viewBox="0 0 94 26" version="1.1" xmlns="http://www.w3.org/2000/svg" xmlns:xlink="http://www.w3.org/1999/xlink">
	<title>infinety</title>
	<g fill="#FFFFFF">
		<path d="M0.288052805,19.4222626 L4.46178218,19.4222626 L4.46178218,6.77575758 L0.288052805,6.77575758 L0.288052805,19.4222626 Z M4.59960396,3.11579798 C4.59960396,4.37167677 3.6380198,5.30084848 2.37491749,5.30084848 C1.08435644,5.30084848 0.150759076,4.37167677 0.150759076,3.08848485 C0.150759076,1.80476768 1.08435644,0.87559596 2.40237624,0.87559596 C3.69293729,0.87559596 4.59960396,1.80476768 4.59960396,3.11579798 L4.59960396,3.11579798 Z" id="Fill-1"></path>
		<path d="M11.8544158,6.77549495 L11.8544158,8.19577778 C12.6787063,6.80280808 13.5573861,6.28385859 15.0950759,6.28385859 C16.3576502,6.28385859 17.565835,6.74818182 18.3626667,7.51294949 C19.2138878,8.3869697 19.515934,9.42486869 19.515934,11.6650707 L19.515934,19.422 L15.3416766,19.422 L15.3416766,11.6918586 C15.3416766,10.4632929 14.6826667,9.72531313 13.6117756,9.72531313 C12.5408845,9.72531313 11.8544158,10.5179192 11.8544158,11.7470101 L11.8544158,19.422 L7.68068647,19.422 L7.68068647,6.77549495 L11.8544158,6.77549495 Z" id="Fill-3"></path>
		<path d="M26.9147459,19.4221051 L22.7410165,19.4221051 L22.7410165,10.2175798 L21.4773861,10.2175798 L21.4773861,6.7756 L22.7410165,6.7756 L22.7410165,6.55709495 C22.7130297,2.81519596 24.5527657,1.09394343 28.3975182,1.20319596 L28.3975182,5.05487273 C27.3815446,5.16412525 26.9147459,5.62844848 26.9147459,6.55709495 L26.9147459,6.7756 L28.3975182,6.7756 L28.3975182,10.2175798 L26.9147459,10.2175798 L26.9147459,19.4221051 Z" id="Fill-4"></path>
		<path d="M30.9151155,19.4222626 L35.0888449,19.4222626 L35.0888449,6.77575758 L30.9151155,6.77575758 L30.9151155,19.4222626 Z M35.2266667,3.11579798 C35.2266667,4.37167677 34.2650825,5.30084848 33.0019802,5.30084848 C31.7114191,5.30084848 30.7778218,4.37167677 30.7778218,3.08848485 C30.7778218,1.80476768 31.7114191,0.87559596 33.0294389,0.87559596 C34.32,0.87559596 35.2266667,1.80476768 35.2266667,3.11579798 L35.2266667,3.11579798 Z" id="Fill-5"></path>
		<path d="M42.4814785,6.77549495 L42.4814785,8.19577778 C43.305769,6.80280808 44.1844488,6.28385859 45.7221386,6.28385859 C46.9847129,6.28385859 48.1928977,6.74818182 48.9897294,7.51294949 C49.8409505,8.3869697 50.1429967,9.42486869 50.1429967,11.6650707 L50.1429967,19.422 L45.9687393,19.422 L45.9687393,11.6918586 C45.9687393,10.4632929 45.3097294,9.72531313 44.2388383,9.72531313 C43.1679472,9.72531313 42.4814785,10.5179192 42.4814785,11.7470101 L42.4814785,19.422 L38.3077492,19.422 L38.3077492,6.77549495 L42.4814785,6.77549495 Z" id="Fill-6"></path>
		<path d="M62.0178482,11.7741657 C61.7427327,10.4631354 60.7542178,9.72568081 59.2714455,9.72568081 C57.8441188,9.72568081 56.8825347,10.4631354 56.6079472,11.7741657 L62.0178482,11.7741657 Z M56.6354059,13.9865293 C56.9374521,15.4068121 58.035802,16.2535192 59.546033,16.2535192 C60.6718416,16.2535192 61.605967,15.7618828 62.0453069,14.8605495 L65.8895314,15.8438222 C65.2579802,17.1007515 64.7911815,17.673802 63.8301254,18.4117818 C62.5390363,19.4223677 61.1111815,19.914004 59.4636568,19.914004 C55.3173861,19.914004 52.3243828,17.0456 52.3243828,13.0305697 C52.3243828,9.01553939 55.1251749,6.28422626 59.2439868,6.28422626 C63.4451749,6.28422626 66.2739538,9.15210505 66.2739538,13.4675798 L66.2739538,13.9865293 L56.6354059,13.9865293 Z" id="Fill-7"></path>
		<path d="M72.745505,15.161099 C72.745505,15.7619879 72.9651749,15.9258667 73.7614785,15.9804929 L74.2008185,15.9804929 L74.2008185,19.4219475 L70.9881452,19.4219475 C69.2033267,19.3673212 68.5443168,18.6298667 68.5717756,16.7998869 L68.5717756,10.1354828 L67.2806865,10.1354828 L67.2806865,6.69350303 L68.5717756,6.69350303 L68.5717756,3.57980606 L72.745505,3.57980606 L72.745505,6.69350303 L74.2008185,6.69350303 L74.2008185,10.1354828 L72.745505,10.1354828 L72.745505,15.161099 Z" id="Fill-8"></path>
		<polygon id="Fill-9" points="84.3244884 6.77549495 88.7178878 6.77549495 81.7708251 25.0490303 77.2945215 25.0490303 79.5741254 19.1761818 75.1532673 6.77549495 79.5741254 6.77549495 81.7708251 13.4131111"></polygon>
		<path d="M93.5040528,17.5647596 C93.5040528,18.8757899 92.515538,19.8317495 91.1975182,19.8317495 C89.8520396,19.8317495 88.8909835,18.8757899 88.8909835,17.5374465 C88.8909835,16.199103 89.8520396,15.2431434 91.2249769,15.2431434 C92.5429967,15.2431434 93.5040528,16.2264162 93.5040528,17.5647596" id="Fill-10"></path>           
	</g>
</svg>